(kicad_pcb (version 3) (host pcbnew "(2013-07-07 BZR 4022)-stable")

  (general
    (links 6)
    (no_connects 0)
    (area 16.539287 15.824999 38.150715 30.005)
    (thickness 1.6)
    (drawings 15)
    (tracks 10)
    (zones 0)
    (modules 3)
    (nets 7)
  )

  (page A)
  (layers
    (15 F.Cu signal)
    (0 B.Cu signal hide)
    (20 B.SilkS user hide)
    (21 F.SilkS user)
    (22 B.Mask user hide)
    (23 F.Mask user hide)
    (24 Dwgs.User user hide)
    (28 Edge.Cuts user)
  )

  (setup
    (last_trace_width 0.508)
    (trace_clearance 0.1778)
    (zone_clearance 0.1778)
    (zone_45_only no)
    (trace_min 0.1524)
    (segment_width 0.2)
    (edge_width 0.0254)
    (via_size 0.6858)
    (via_drill 0.3302)
    (via_min_size 0.6858)
    (via_min_drill 0.3302)
    (uvia_size 0.6858)
    (uvia_drill 0.3302)
    (uvias_allowed no)
    (uvia_min_size 0.6858)
    (uvia_min_drill 0.3302)
    (pcb_text_width 0.3)
    (pcb_text_size 1.5 1.5)
    (mod_edge_width 0.15)
    (mod_text_size 1.5 1.5)
    (mod_text_width 0.15)
    (pad_size 1.4224 1.4224)
    (pad_drill 0.8636)
    (pad_to_mask_clearance 0.2)
    (aux_axis_origin 22.225 19.685)
    (visible_elements 7FFFFD9F)
    (pcbplotparams
      (layerselection 284196865)
      (usegerberextensions true)
      (excludeedgelayer true)
      (linewidth 0.150000)
      (plotframeref false)
      (viasonmask false)
      (mode 1)
      (useauxorigin false)
      (hpglpennumber 1)
      (hpglpenspeed 20)
      (hpglpendiameter 15)
      (hpglpenoverlay 2)
      (psnegative false)
      (psa4output false)
      (plotreference false)
      (plotvalue false)
      (plotothertext true)
      (plotinvisibletext false)
      (padsonsilk false)
      (subtractmaskfromsilk false)
      (outputformat 1)
      (mirror false)
      (drillshape 0)
      (scaleselection 1)
      (outputdirectory output/gerber/))
  )

  (net 0 "")
  (net 1 N-000001)
  (net 2 N-000002)
  (net 3 N-000003)
  (net 4 N-000004)
  (net 5 N-000005)
  (net 6 N-000006)

  (net_class Default "This is the default net class."
    (clearance 0.1778)
    (trace_width 0.508)
    (via_dia 0.6858)
    (via_drill 0.3302)
    (uvia_dia 0.6858)
    (uvia_drill 0.3302)
    (add_net "")
    (add_net N-000001)
    (add_net N-000002)
    (add_net N-000003)
    (add_net N-000004)
    (add_net N-000005)
    (add_net N-000006)
  )

  (module SOT-26 (layer F.Cu) (tedit 53C8A537) (tstamp 53B8A862)
    (at 22.225 19.685)
    (path /53CB06FA)
    (fp_text reference U1 (at 0 -2.1) (layer F.SilkS) hide
      (effects (font (size 0.50038 0.50038) (thickness 0.125095)))
    )
    (fp_text value IC-6 (at 0 0 90) (layer F.SilkS) hide
      (effects (font (size 0.50038 0.50038) (thickness 0.125095)))
    )
    (fp_line (start -0.8 -1.45) (end 0.8 -1.45) (layer F.SilkS) (width 0.15))
    (fp_line (start 0.8 -1.45) (end 0.8 1.45) (layer F.SilkS) (width 0.15))
    (fp_line (start 0.8 1.45) (end -0.8 1.45) (layer F.SilkS) (width 0.15))
    (fp_line (start -0.8 1.45) (end -0.8 -1.45) (layer F.SilkS) (width 0.15))
    (fp_circle (center -0.454 -1.093) (end -0.327 -1.093) (layer F.SilkS) (width 0.15))
    (pad 1 smd rect (at -1.25 -0.95) (size 0.9 0.5)
      (layers F.Cu F.Mask)
      (net 1 N-000001)
    )
    (pad 2 smd rect (at -1.25 0) (size 0.9 0.5)
      (layers F.Cu F.Mask)
      (net 2 N-000002)
    )
    (pad 3 smd rect (at -1.25 0.95) (size 0.9 0.5)
      (layers F.Cu F.Mask)
      (net 3 N-000003)
    )
    (pad 4 smd rect (at 1.25 0.95) (size 0.9 0.5)
      (layers F.Cu F.Mask)
      (net 4 N-000004)
    )
    (pad 5 smd rect (at 1.25 0) (size 0.9 0.5)
      (layers F.Cu F.Mask)
      (net 5 N-000005)
    )
    (pad 6 smd rect (at 1.25 -0.95) (size 0.9 0.5)
      (layers F.Cu F.Mask)
      (net 6 N-000006)
    )
  )

  (module PIN_HDR-3 (layer F.Cu) (tedit 53CAF847) (tstamp 53CB0571)
    (at 18.415 19.685 270)
    (path /53CB049B)
    (fp_text reference K1 (at 0 -1.27 270) (layer F.SilkS) hide
      (effects (font (size 0.5 0.5) (thickness 0.1)))
    )
    (fp_text value CONN_3 (at 0 1.27 270) (layer F.SilkS) hide
      (effects (font (size 0.5 0.5) (thickness 0.1)))
    )
    (pad 1 thru_hole circle (at -2.54 0 270) (size 1.4224 1.4224) (drill 0.8636)
      (layers *.Cu *.Mask F.SilkS)
      (net 1 N-000001)
    )
    (pad 2 thru_hole circle (at 0 0 270) (size 1.4224 1.4224) (drill 0.8636)
      (layers *.Cu *.Mask F.SilkS)
      (net 2 N-000002)
    )
    (pad 3 thru_hole circle (at 2.54 0 270) (size 1.4224 1.4224) (drill 0.8636)
      (layers *.Cu *.Mask F.SilkS)
      (net 3 N-000003)
    )
  )

  (module PIN_HDR-3 (layer F.Cu) (tedit 53CAF847) (tstamp 53CB0578)
    (at 26.035 19.685 90)
    (path /53CB04AA)
    (fp_text reference K2 (at 0 -1.27 90) (layer F.SilkS) hide
      (effects (font (size 0.5 0.5) (thickness 0.1)))
    )
    (fp_text value CONN_3 (at 0 1.27 90) (layer F.SilkS) hide
      (effects (font (size 0.5 0.5) (thickness 0.1)))
    )
    (pad 1 thru_hole circle (at -2.54 0 90) (size 1.4224 1.4224) (drill 0.8636)
      (layers *.Cu *.Mask F.SilkS)
      (net 4 N-000004)
    )
    (pad 2 thru_hole circle (at 0 0 90) (size 1.4224 1.4224) (drill 0.8636)
      (layers *.Cu *.Mask F.SilkS)
      (net 5 N-000005)
    )
    (pad 3 thru_hole circle (at 2.54 0 90) (size 1.4224 1.4224) (drill 0.8636)
      (layers *.Cu *.Mask F.SilkS)
      (net 6 N-000006)
    )
  )

  (dimension 7.62 (width 0.3) (layer Dwgs.User)
    (gr_text "0.3000 in" (at 32.465 19.685 90) (layer Dwgs.User)
      (effects (font (size 1.5 1.5) (thickness 0.3)))
    )
    (feature1 (pts (xy 29.845 15.875) (xy 33.815 15.875)))
    (feature2 (pts (xy 29.845 23.495) (xy 33.815 23.495)))
    (crossbar (pts (xy 31.115 23.495) (xy 31.115 15.875)))
    (arrow1a (pts (xy 31.115 15.875) (xy 31.70142 17.001503)))
    (arrow1b (pts (xy 31.115 15.875) (xy 30.52858 17.001503)))
    (arrow2a (pts (xy 31.115 23.495) (xy 31.70142 22.368497)))
    (arrow2b (pts (xy 31.115 23.495) (xy 30.52858 22.368497)))
  )
  (dimension 10.16 (width 0.3) (layer Dwgs.User)
    (gr_text "0.4000 in" (at 22.225 28.654999) (layer Dwgs.User)
      (effects (font (size 1.5 1.5) (thickness 0.3)))
    )
    (feature1 (pts (xy 27.305 26.035) (xy 27.305 30.004999)))
    (feature2 (pts (xy 17.145 26.035) (xy 17.145 30.004999)))
    (crossbar (pts (xy 17.145 27.304999) (xy 27.305 27.304999)))
    (arrow1a (pts (xy 27.305 27.304999) (xy 26.178497 27.891419)))
    (arrow1b (pts (xy 27.305 27.304999) (xy 26.178497 26.718579)))
    (arrow2a (pts (xy 17.145 27.304999) (xy 18.271503 27.891419)))
    (arrow2b (pts (xy 17.145 27.304999) (xy 18.271503 26.718579)))
  )
  (gr_text -26 (at 22.225 21.717) (layer F.SilkS)
    (effects (font (size 0.50038 0.50038) (thickness 0.125095)))
  )
  (gr_text SOT (at 22.225 17.653) (layer F.SilkS)
    (effects (font (size 0.50038 0.50038) (thickness 0.125095)))
  )
  (gr_line (start 27.305 23.495) (end 27.305 15.875) (angle 90) (layer Edge.Cuts) (width 0.0254))
  (gr_line (start 17.145 23.495) (end 27.305 23.495) (angle 90) (layer Edge.Cuts) (width 0.0254))
  (gr_line (start 17.145 15.875) (end 17.145 23.495) (angle 90) (layer Edge.Cuts) (width 0.0254))
  (gr_line (start 27.305 15.875) (end 17.145 15.875) (angle 90) (layer Edge.Cuts) (width 0.0254))
  (gr_text SOT-26 (at 22.225 19.685 90) (layer B.SilkS)
    (effects (font (size 0.75 0.75) (thickness 0.15)) (justify mirror))
  )
  (gr_text 6 (at 24.638 17.145) (layer F.SilkS)
    (effects (font (size 1 1) (thickness 0.2)))
  )
  (gr_text 5 (at 24.638 19.685) (layer F.SilkS)
    (effects (font (size 1 1) (thickness 0.2)))
  )
  (gr_text 4 (at 24.638 22.225) (layer F.SilkS)
    (effects (font (size 1 1) (thickness 0.2)))
  )
  (gr_text 3 (at 19.812 22.225) (layer F.SilkS)
    (effects (font (size 1 1) (thickness 0.2)))
  )
  (gr_text 2 (at 19.812 19.685) (layer F.SilkS)
    (effects (font (size 1 1) (thickness 0.2)))
  )
  (gr_text 1 (at 19.812 17.145) (layer F.SilkS)
    (effects (font (size 1 1) (thickness 0.2)))
  )

  (segment (start 20.975 18.735) (end 20.005 18.735) (width 0.508) (layer F.Cu) (net 1))
  (segment (start 20.005 18.735) (end 18.415 17.145) (width 0.508) (layer F.Cu) (net 1) (tstamp 53C8A582))
  (segment (start 20.975 19.685) (end 18.415 19.685) (width 0.508) (layer F.Cu) (net 2))
  (segment (start 20.975 20.635) (end 20.005 20.635) (width 0.508) (layer F.Cu) (net 3))
  (segment (start 20.005 20.635) (end 18.415 22.225) (width 0.508) (layer F.Cu) (net 3) (tstamp 53C8A585))
  (segment (start 23.475 20.635) (end 24.445 20.635) (width 0.508) (layer F.Cu) (net 4))
  (segment (start 24.445 20.635) (end 26.035 22.225) (width 0.508) (layer F.Cu) (net 4) (tstamp 53C8A57D))
  (segment (start 23.475 19.685) (end 26.035 19.685) (width 0.508) (layer F.Cu) (net 5))
  (segment (start 23.475 18.735) (end 24.445 18.735) (width 0.508) (layer F.Cu) (net 6))
  (segment (start 24.445 18.735) (end 26.035 17.145) (width 0.508) (layer F.Cu) (net 6) (tstamp 53C8A57A))

  (zone (net 0) (net_name "") (layer F.Cu) (tstamp 53C89F61) (hatch edge 0.508)
    (connect_pads (clearance 0.1778))
    (min_thickness 0.1778)
    (fill (arc_segments 32) (thermal_gap 0.1778) (thermal_bridge_width 0.381))
    (polygon
      (pts
        (xy 27.305 23.495) (xy 17.145 23.495) (xy 17.145 15.875) (xy 27.305 15.875)
      )
    )
    (filled_polygon
      (pts
        (xy 27.0256 23.2156) (xy 27.012941 23.2156) (xy 27.012941 22.129112) (xy 26.975692 21.940988) (xy 26.902612 21.763683)
        (xy 26.796484 21.603948) (xy 26.661353 21.46787) (xy 26.502363 21.36063) (xy 26.325572 21.286314) (xy 26.137713 21.247752)
        (xy 25.945942 21.246413) (xy 25.817328 21.270947) (xy 24.813191 20.266809) (xy 24.776029 20.236284) (xy 24.739579 20.2057)
        (xy 25.207137 20.2057) (xy 25.264919 20.295359) (xy 25.398137 20.433311) (xy 25.555614 20.54276) (xy 25.73135 20.619538)
        (xy 25.918653 20.660719) (xy 26.110386 20.664735) (xy 26.299249 20.631433) (xy 26.478046 20.562082) (xy 26.639968 20.459324)
        (xy 26.778847 20.327071) (xy 26.889393 20.170363) (xy 26.967395 19.995167) (xy 27.009883 19.808156) (xy 27.012941 19.589112)
        (xy 26.975692 19.400988) (xy 26.902612 19.223683) (xy 26.796484 19.063948) (xy 26.661353 18.92787) (xy 26.502363 18.82063)
        (xy 26.325572 18.746314) (xy 26.137713 18.707752) (xy 25.945942 18.706413) (xy 25.757563 18.742348) (xy 25.579751 18.814189)
        (xy 25.41928 18.919198) (xy 25.282261 19.053377) (xy 25.20631 19.1643) (xy 24.738548 19.1643) (xy 24.770421 19.138304)
        (xy 24.808014 19.108295) (xy 24.811831 19.104531) (xy 24.811903 19.104473) (xy 24.811957 19.104407) (xy 24.813191 19.103191)
        (xy 25.817829 18.098551) (xy 25.918653 18.120719) (xy 26.110386 18.124735) (xy 26.299249 18.091433) (xy 26.478046 18.022082)
        (xy 26.639968 17.919324) (xy 26.778847 17.787071) (xy 26.889393 17.630363) (xy 26.967395 17.455167) (xy 27.009883 17.268156)
        (xy 27.012941 17.049112) (xy 26.975692 16.860988) (xy 26.902612 16.683683) (xy 26.796484 16.523948) (xy 26.661353 16.38787)
        (xy 26.502363 16.28063) (xy 26.325572 16.206314) (xy 26.137713 16.167752) (xy 25.945942 16.166413) (xy 25.757563 16.202348)
        (xy 25.579751 16.274189) (xy 25.41928 16.379198) (xy 25.282261 16.513377) (xy 25.173914 16.671614) (xy 25.098365 16.847882)
        (xy 25.058493 17.035467) (xy 25.055815 17.227224) (xy 25.080716 17.362902) (xy 24.229318 18.2143) (xy 23.475 18.2143)
        (xy 23.435186 18.218203) (xy 22.998849 18.218289) (xy 22.947543 18.228448) (xy 22.899187 18.248379) (xy 22.855623 18.277322)
        (xy 22.81851 18.314177) (xy 22.789263 18.357537) (xy 22.768995 18.405753) (xy 22.758478 18.456987) (xy 22.758113 18.509288)
        (xy 22.758289 19.011151) (xy 22.768448 19.062457) (xy 22.788379 19.110813) (xy 22.817322 19.154377) (xy 22.854177 19.19149)
        (xy 22.881656 19.210025) (xy 22.855623 19.227322) (xy 22.81851 19.264177) (xy 22.789263 19.307537) (xy 22.768995 19.355753)
        (xy 22.758478 19.406987) (xy 22.758113 19.459288) (xy 22.758289 19.961151) (xy 22.768448 20.012457) (xy 22.788379 20.060813)
        (xy 22.817322 20.104377) (xy 22.854177 20.14149) (xy 22.881656 20.160025) (xy 22.855623 20.177322) (xy 22.81851 20.214177)
        (xy 22.789263 20.257537) (xy 22.768995 20.305753) (xy 22.758478 20.356987) (xy 22.758113 20.409288) (xy 22.758289 20.911151)
        (xy 22.768448 20.962457) (xy 22.788379 21.010813) (xy 22.817322 21.054377) (xy 22.854177 21.09149) (xy 22.897537 21.120737)
        (xy 22.945753 21.141005) (xy 22.996987 21.151522) (xy 23.049288 21.151887) (xy 23.433522 21.151812) (xy 23.46773 21.155649)
        (xy 23.475 21.1557) (xy 24.229318 21.1557) (xy 25.081385 22.007766) (xy 25.058493 22.115467) (xy 25.055815 22.307224)
        (xy 25.090434 22.49585) (xy 25.161032 22.674159) (xy 25.264919 22.835359) (xy 25.398137 22.973311) (xy 25.555614 23.08276)
        (xy 25.73135 23.159538) (xy 25.918653 23.200719) (xy 26.110386 23.204735) (xy 26.299249 23.171433) (xy 26.478046 23.102082)
        (xy 26.639968 22.999324) (xy 26.778847 22.867071) (xy 26.889393 22.710363) (xy 26.967395 22.535167) (xy 27.009883 22.348156)
        (xy 27.012941 22.129112) (xy 27.012941 23.2156) (xy 21.691887 23.2156) (xy 21.691887 20.860712) (xy 21.691711 20.358849)
        (xy 21.681552 20.307543) (xy 21.661621 20.259187) (xy 21.632678 20.215623) (xy 21.595823 20.17851) (xy 21.568343 20.159974)
        (xy 21.594377 20.142678) (xy 21.63149 20.105823) (xy 21.660737 20.062463) (xy 21.681005 20.014247) (xy 21.691522 19.963013)
        (xy 21.691887 19.910712) (xy 21.691711 19.408849) (xy 21.681552 19.357543) (xy 21.661621 19.309187) (xy 21.632678 19.265623)
        (xy 21.595823 19.22851) (xy 21.568343 19.209974) (xy 21.594377 19.192678) (xy 21.63149 19.155823) (xy 21.660737 19.112463)
        (xy 21.681005 19.064247) (xy 21.691522 19.013013) (xy 21.691887 18.960712) (xy 21.691711 18.458849) (xy 21.681552 18.407543)
        (xy 21.661621 18.359187) (xy 21.632678 18.315623) (xy 21.595823 18.27851) (xy 21.552463 18.249263) (xy 21.504247 18.228995)
        (xy 21.453013 18.218478) (xy 21.400712 18.218113) (xy 21.016477 18.218187) (xy 20.98227 18.214351) (xy 20.975 18.2143)
        (xy 20.220681 18.2143) (xy 19.368528 17.362147) (xy 19.389883 17.268156) (xy 19.392941 17.049112) (xy 19.355692 16.860988)
        (xy 19.282612 16.683683) (xy 19.176484 16.523948) (xy 19.041353 16.38787) (xy 18.882363 16.28063) (xy 18.705572 16.206314)
        (xy 18.517713 16.167752) (xy 18.325942 16.166413) (xy 18.137563 16.202348) (xy 17.959751 16.274189) (xy 17.79928 16.379198)
        (xy 17.662261 16.513377) (xy 17.553914 16.671614) (xy 17.478365 16.847882) (xy 17.438493 17.035467) (xy 17.435815 17.227224)
        (xy 17.470434 17.41585) (xy 17.541032 17.594159) (xy 17.644919 17.755359) (xy 17.778137 17.893311) (xy 17.935614 18.00276)
        (xy 18.11135 18.079538) (xy 18.298653 18.120719) (xy 18.490386 18.124735) (xy 18.633175 18.099557) (xy 19.636809 19.10319)
        (xy 19.67394 19.13369) (xy 19.71042 19.1643) (xy 19.243157 19.1643) (xy 19.176484 19.063948) (xy 19.041353 18.92787)
        (xy 18.882363 18.82063) (xy 18.705572 18.746314) (xy 18.517713 18.707752) (xy 18.325942 18.706413) (xy 18.137563 18.742348)
        (xy 17.959751 18.814189) (xy 17.79928 18.919198) (xy 17.662261 19.053377) (xy 17.553914 19.211614) (xy 17.478365 19.387882)
        (xy 17.438493 19.575467) (xy 17.435815 19.767224) (xy 17.470434 19.95585) (xy 17.541032 20.134159) (xy 17.644919 20.295359)
        (xy 17.778137 20.433311) (xy 17.935614 20.54276) (xy 18.11135 20.619538) (xy 18.298653 20.660719) (xy 18.490386 20.664735)
        (xy 18.679249 20.631433) (xy 18.858046 20.562082) (xy 19.019968 20.459324) (xy 19.158847 20.327071) (xy 19.244465 20.2057)
        (xy 19.711451 20.2057) (xy 19.679551 20.231717) (xy 19.641986 20.261705) (xy 19.638172 20.265465) (xy 19.638097 20.265527)
        (xy 19.638039 20.265597) (xy 19.636809 20.26681) (xy 18.632337 21.271281) (xy 18.517713 21.247752) (xy 18.325942 21.246413)
        (xy 18.137563 21.282348) (xy 17.959751 21.354189) (xy 17.79928 21.459198) (xy 17.662261 21.593377) (xy 17.553914 21.751614)
        (xy 17.478365 21.927882) (xy 17.438493 22.115467) (xy 17.435815 22.307224) (xy 17.470434 22.49585) (xy 17.541032 22.674159)
        (xy 17.644919 22.835359) (xy 17.778137 22.973311) (xy 17.935614 23.08276) (xy 18.11135 23.159538) (xy 18.298653 23.200719)
        (xy 18.490386 23.204735) (xy 18.679249 23.171433) (xy 18.858046 23.102082) (xy 19.019968 22.999324) (xy 19.158847 22.867071)
        (xy 19.269393 22.710363) (xy 19.347395 22.535167) (xy 19.389883 22.348156) (xy 19.392941 22.129112) (xy 19.368864 22.007516)
        (xy 20.220681 21.1557) (xy 20.975 21.1557) (xy 21.014813 21.151796) (xy 21.451151 21.151711) (xy 21.502457 21.141552)
        (xy 21.550813 21.121621) (xy 21.594377 21.092678) (xy 21.63149 21.055823) (xy 21.660737 21.012463) (xy 21.681005 20.964247)
        (xy 21.691522 20.913013) (xy 21.691887 20.860712) (xy 21.691887 23.2156) (xy 17.4244 23.2156) (xy 17.4244 16.1544)
        (xy 27.0256 16.1544) (xy 27.0256 23.2156)
      )
    )
  )
  (zone (net 0) (net_name "") (layer B.Cu) (tstamp 54D83575) (hatch edge 0.508)
    (connect_pads (clearance 0.1778))
    (min_thickness 0.1778)
    (fill (arc_segments 32) (thermal_gap 0.1778) (thermal_bridge_width 0.381))
    (polygon
      (pts
        (xy 17.145 15.875) (xy 27.305 15.875) (xy 27.305 23.495) (xy 17.145 23.495)
      )
    )
    (filled_polygon
      (pts
        (xy 27.0256 23.2156) (xy 27.012941 23.2156) (xy 27.012941 22.129112) (xy 27.012941 19.589112) (xy 27.012941 17.049112)
        (xy 26.975692 16.860988) (xy 26.902612 16.683683) (xy 26.796484 16.523948) (xy 26.661353 16.38787) (xy 26.502363 16.28063)
        (xy 26.325572 16.206314) (xy 26.137713 16.167752) (xy 25.945942 16.166413) (xy 25.757563 16.202348) (xy 25.579751 16.274189)
        (xy 25.41928 16.379198) (xy 25.282261 16.513377) (xy 25.173914 16.671614) (xy 25.098365 16.847882) (xy 25.058493 17.035467)
        (xy 25.055815 17.227224) (xy 25.090434 17.41585) (xy 25.161032 17.594159) (xy 25.264919 17.755359) (xy 25.398137 17.893311)
        (xy 25.555614 18.00276) (xy 25.73135 18.079538) (xy 25.918653 18.120719) (xy 26.110386 18.124735) (xy 26.299249 18.091433)
        (xy 26.478046 18.022082) (xy 26.639968 17.919324) (xy 26.778847 17.787071) (xy 26.889393 17.630363) (xy 26.967395 17.455167)
        (xy 27.009883 17.268156) (xy 27.012941 17.049112) (xy 27.012941 19.589112) (xy 26.975692 19.400988) (xy 26.902612 19.223683)
        (xy 26.796484 19.063948) (xy 26.661353 18.92787) (xy 26.502363 18.82063) (xy 26.325572 18.746314) (xy 26.137713 18.707752)
        (xy 25.945942 18.706413) (xy 25.757563 18.742348) (xy 25.579751 18.814189) (xy 25.41928 18.919198) (xy 25.282261 19.053377)
        (xy 25.173914 19.211614) (xy 25.098365 19.387882) (xy 25.058493 19.575467) (xy 25.055815 19.767224) (xy 25.090434 19.95585)
        (xy 25.161032 20.134159) (xy 25.264919 20.295359) (xy 25.398137 20.433311) (xy 25.555614 20.54276) (xy 25.73135 20.619538)
        (xy 25.918653 20.660719) (xy 26.110386 20.664735) (xy 26.299249 20.631433) (xy 26.478046 20.562082) (xy 26.639968 20.459324)
        (xy 26.778847 20.327071) (xy 26.889393 20.170363) (xy 26.967395 19.995167) (xy 27.009883 19.808156) (xy 27.012941 19.589112)
        (xy 27.012941 22.129112) (xy 26.975692 21.940988) (xy 26.902612 21.763683) (xy 26.796484 21.603948) (xy 26.661353 21.46787)
        (xy 26.502363 21.36063) (xy 26.325572 21.286314) (xy 26.137713 21.247752) (xy 25.945942 21.246413) (xy 25.757563 21.282348)
        (xy 25.579751 21.354189) (xy 25.41928 21.459198) (xy 25.282261 21.593377) (xy 25.173914 21.751614) (xy 25.098365 21.927882)
        (xy 25.058493 22.115467) (xy 25.055815 22.307224) (xy 25.090434 22.49585) (xy 25.161032 22.674159) (xy 25.264919 22.835359)
        (xy 25.398137 22.973311) (xy 25.555614 23.08276) (xy 25.73135 23.159538) (xy 25.918653 23.200719) (xy 26.110386 23.204735)
        (xy 26.299249 23.171433) (xy 26.478046 23.102082) (xy 26.639968 22.999324) (xy 26.778847 22.867071) (xy 26.889393 22.710363)
        (xy 26.967395 22.535167) (xy 27.009883 22.348156) (xy 27.012941 22.129112) (xy 27.012941 23.2156) (xy 19.392941 23.2156)
        (xy 19.392941 22.129112) (xy 19.392941 19.589112) (xy 19.392941 17.049112) (xy 19.355692 16.860988) (xy 19.282612 16.683683)
        (xy 19.176484 16.523948) (xy 19.041353 16.38787) (xy 18.882363 16.28063) (xy 18.705572 16.206314) (xy 18.517713 16.167752)
        (xy 18.325942 16.166413) (xy 18.137563 16.202348) (xy 17.959751 16.274189) (xy 17.79928 16.379198) (xy 17.662261 16.513377)
        (xy 17.553914 16.671614) (xy 17.478365 16.847882) (xy 17.438493 17.035467) (xy 17.435815 17.227224) (xy 17.470434 17.41585)
        (xy 17.541032 17.594159) (xy 17.644919 17.755359) (xy 17.778137 17.893311) (xy 17.935614 18.00276) (xy 18.11135 18.079538)
        (xy 18.298653 18.120719) (xy 18.490386 18.124735) (xy 18.679249 18.091433) (xy 18.858046 18.022082) (xy 19.019968 17.919324)
        (xy 19.158847 17.787071) (xy 19.269393 17.630363) (xy 19.347395 17.455167) (xy 19.389883 17.268156) (xy 19.392941 17.049112)
        (xy 19.392941 19.589112) (xy 19.355692 19.400988) (xy 19.282612 19.223683) (xy 19.176484 19.063948) (xy 19.041353 18.92787)
        (xy 18.882363 18.82063) (xy 18.705572 18.746314) (xy 18.517713 18.707752) (xy 18.325942 18.706413) (xy 18.137563 18.742348)
        (xy 17.959751 18.814189) (xy 17.79928 18.919198) (xy 17.662261 19.053377) (xy 17.553914 19.211614) (xy 17.478365 19.387882)
        (xy 17.438493 19.575467) (xy 17.435815 19.767224) (xy 17.470434 19.95585) (xy 17.541032 20.134159) (xy 17.644919 20.295359)
        (xy 17.778137 20.433311) (xy 17.935614 20.54276) (xy 18.11135 20.619538) (xy 18.298653 20.660719) (xy 18.490386 20.664735)
        (xy 18.679249 20.631433) (xy 18.858046 20.562082) (xy 19.019968 20.459324) (xy 19.158847 20.327071) (xy 19.269393 20.170363)
        (xy 19.347395 19.995167) (xy 19.389883 19.808156) (xy 19.392941 19.589112) (xy 19.392941 22.129112) (xy 19.355692 21.940988)
        (xy 19.282612 21.763683) (xy 19.176484 21.603948) (xy 19.041353 21.46787) (xy 18.882363 21.36063) (xy 18.705572 21.286314)
        (xy 18.517713 21.247752) (xy 18.325942 21.246413) (xy 18.137563 21.282348) (xy 17.959751 21.354189) (xy 17.79928 21.459198)
        (xy 17.662261 21.593377) (xy 17.553914 21.751614) (xy 17.478365 21.927882) (xy 17.438493 22.115467) (xy 17.435815 22.307224)
        (xy 17.470434 22.49585) (xy 17.541032 22.674159) (xy 17.644919 22.835359) (xy 17.778137 22.973311) (xy 17.935614 23.08276)
        (xy 18.11135 23.159538) (xy 18.298653 23.200719) (xy 18.490386 23.204735) (xy 18.679249 23.171433) (xy 18.858046 23.102082)
        (xy 19.019968 22.999324) (xy 19.158847 22.867071) (xy 19.269393 22.710363) (xy 19.347395 22.535167) (xy 19.389883 22.348156)
        (xy 19.392941 22.129112) (xy 19.392941 23.2156) (xy 17.4244 23.2156) (xy 17.4244 16.1544) (xy 27.0256 16.1544)
        (xy 27.0256 23.2156)
      )
    )
  )
)
